802186 7957
761844 624600
685517 976632
443178 477071
886438 769775
109328 946009
844404 624354
574561 522299
745590 869077
16927 823689
971702 366636
422579 322038
404682 406365
270367 653603
589915 545982
145031 309084
388568 480342
39559 875278
624821 897957
715889 637984
728644 166511
154602 683924
477970 192095
778216 729791
736279 718635
399074 39874
438365 664068
712620 125199
863458 799148
808585 277099
853811 130114
167288 983472
468591 742895
861174 456706
73007 591207
26969 251707
171601 325775
977665 795625
819154 153650
418020 541786
365147 539037
703692 825677
764478 762845
223244 220182
443755 690719
544518 772436
794032 416323
245112 448784
265803 967755
469291 423735
617810 238839
492447 834655
331798 927086
288905 104906
351897 915364
431152 318244
626916 130250
258853 269000
609594 708862
818159 393102
530856 532643
479458 42797
513105 120414
753305 721079
495880 375389
351888 152516
650099 405480
290835 994361
287326 793682
365787 298108
1059 450785
842407 151230
394335 252637
772977 254153
40203 703831
266303 212337
325745 656492
666843 773459
204956 848426
678298 208849
585985 700788
554854 290024
424098 906182
636471 204594
3449 529235
166681 391804
557079 879533
41681 381205
175315 457444
670990 700989
875335 151438
83045 358595
41050 879842
494568 358822
88410 345412
871914 75102
23986 185202
836322 74207
619909 73021
426239 186763
785430 721018
492706 629102
789163 830926
362601 769961
148638 603267
17302 867964
564170 565163
7463 584945
774023 801162
487109 767470
850618 886729
54620 557661
428631 911696
162925 819154
678143 321306
548058 550813
971514 263107
116557 21186
302320 496078
159333 463391
250279 817774
257242 648573
646418 958979
653844 909276
141478 858907
842808 916476
372568 341473
953642 346771
510303 844673
923755 63149
359095 639074
974246 889473
312898 755265
405619 785486
822858 19199
114938 331189
403819 235482
421060 6340
48400 419848
926739 242681
46274 503717
518275 987326
725685 870487
93482 848957
785419 263029
149376 152564
632035 971985
6572 201956
268570 231547
665706 646704
592221 860958
336099 491551
473644 531280
93563 726422
175186 659646
228837 383389
217083 791528
411816 315911
170530 915340
742926 810538
365541 425773
200686 383206
132559 325578
578433 240170
514456 559633
831883 765627
602532 56868
365353 336276
380194 906235
452633 903263
727202 881518
527918 566551
637854 44482
902096 325057
158494 533590
463342 142475
855296 261380
73570 216985
820907 340143
894861 145812
972950 374661
117679 630846
77240 119310
774176 2022
659869 644316
706532 626967
856175 590072
975296 854353
403281 864567
64654 532750
517930 168539
786713 808150
867470 147536
213236 949601
339911 370779
978499 940092
428430 980755
860798 488087
144681 130680
390380 298261
723209 78509
218025 162364
431050 779518
380844 625687
190771 882287
798896 92246
215920 839843
420446 120199
935717 994540
431131 833155
966928 512793
10804 653116
16102 188887
500629 514366
921383 43393
440580 106310
892487 98286
387203 574656
208667 105109
98047 231478
159669 901682
605282 763120
824718 75751
775830 227725
966819 704043
775316 206965
875735 773087
219847 805319
790195 500100
698621 33992
454591 154498
392402 940664
389435 759056
195193 670322
662343 289127
246092 378517
487446 222968
957202 832806
587772 789604
