278741 351577
597087 354805
136341 659105
813203 854021
275995 533668
666620 266229
143077 669898
456257 698006
914968 170513
155577 998986
318225 87864
561538 358925
744447 370986
498142 666458
621994 186852
332378 484098
677264 853600
503666 143238
984406 80323
367821 610941
926671 186176
23769 466891
125655 228097
327672 145890
23730 934388
842745 915709
248122 745216
877773 711551
411129 679486
903180 583116
220944 631103
221545 996480
432196 997008
986847 678507
384401 826388
922120 618408
157122 155402
485021 767732
367831 133095
162272 570157
262056 349380
852033 756187
32697 917939
246134 768885
58501 973233
308190 242466
945096 427582
622561 825478
436191 139561
528753 561168
25610 640875
746923 688934
119176 844455
712443 49373
903367 576684
357059 448386
883401 177547
317697 623520
50794 819304
439483 46324
888550 996861
698584 685197
167798 909211
249551 554705
716810 104199
182526 732863
715455 422623
324887 550408
747574 508383
979441 958896
211952 4578
398570 458195
174024 868567
524638 667912
862059 242300
855056 196773
389152 95351
346815 707262
585347 397237
924453 556490
447690 828069
705446 61670
315934 170393
134746 148025
503131 718898
84631 715953
858693 759123
636968 980538
242585 778327
753231 139855
796247 795441
998435 477764
799606 836601
599732 68129
218970 43401
929317 24970
869287 345325
706274 657027
147166 579757
706028 990700
668478 76876
481035 357665
323473 220488
598489 622467
930490 60230
245157 799679
969724 626781
692314 769673
56027 89094
432593 462363
482402 581285
587455 605136
395254 819357
917593 756851
789019 972097
697340 983633
432327 526973
718777 981835
760319 425891
70725 618878
748295 982111
795499 116827
960659 355266
438367 977315
72394 306448
416698 70830
558116 701133
756636 159128
437523 572662
828973 711880
37185 985609
41748 666462
463780 542433
491989 26658
161284 688029
606473 79132
231636 593312
393296 897689
706262 808048
946178 809887
948660 909629
591139 848906
568950 235995
513914 144107
529218 489661
419139 592455
858324 18794
573931 147757
134802 798596
51049 146991
370226 367027
561020 142281
638370 42083
928528 719563
659278 678636
798253 956594
265046 184245
957733 208040
600653 167965
242525 706699
201800 379396
247070 852565
964262 904412
221223 911816
27330 266947
403427 831646
545322 863989
805528 185428
282748 537983
695268 370994
373849 757938
405760 387142
295220 872045
528556 916911
766302 786041
946597 529447
674783 714828
759451 617248
374807 470267
49328 738066
247143 640844
746152 166861
267869 799485
244205 291309
110811 918552
893984 346925
658955 792308
143520 280430
964085 843143
183374 814753
503390 381130
73697 42335
859360 150541
518218 47602
92064 933115
8314 166107
280015 529034
369184 595686
512141 887140
755828 999013
574798 40679
240712 861747
519336 451440
90814 135983
498022 519926
572540 483743
143837 275200
552590 136383
975210 544077
180849 124947
900128 708856
238712 558386
459427 154552
977986 944689
950193 671028
796153 659030
281548 532828
310274 768670
324744 156422
263820 970315
931498 748548
998688 270206
933757 479488
891553 358165
752239 567973
816595 732053
590325 579923
950461 870052
583368 146937
777792 49652
403541 32044
672824 775099
919898 75274
893347 950344
50913 457100
958762 165636
768718 492697
509025 182278
674401 907033
807231 151759
345386 344700
300999 611455
122323 576031
61049 551084
865960 860425
593831 136987
101992 839471
819191 267103
448217 561119
979140 181920
