43343 148250 375
516178 630116 509
411965 574844 470
269344 305105 407
864155 47094 525
116535 464604 449
571294 96100 470
33455 760539 509
131185 259858 443
467052 940941 525
895981 692904 525
756987 384905 509
816318 129925 509
82680 98885 333
807001 782085 468
906 945301 525
502356 198813 449
971773 849471 507
205428 573934 470
755855 246004 509
841535 240766 525
831247 999609 525
200436 532025 470
400849 168312 443
263660 218682 443
871770 772012 525
859702 712412 525
971529 248157 525
702842 813905 504
628774 128977 509
788331 94012 509
318222 146640 443
626228 296783 470
801208 692600 504
698441 303954 509
825981 328023 509
897642 88747 525
427741 384507 449
496770 932634 525
832019 828788 419
873310 833291 525
735172 267677 509
624229 618361 372
689860 317653 509
355439 887378 525
404720 142754 443
84007 703767 509
731061 915488 525
833634 287787 509
464844 664482 509
188356 121355 383
296537 181936 443
389849 411840 449
403674 192994 443
527265 927247 525
191986 339234 443
305008 128884 443
26895 345732 443
883922 140182 525
964741 222639 525
252403 949576 525
780584 601490 509
909990 138159 525
983393 67088 525
902375 10499 525
470400 99481 449
958473 877002 507
711617 882089 525
210119 141142 383
750406 599597 509
118113 140641 344
353209 852886 525
167 744823 509
444879 796290 509
245187 628805 509
771963 228926 509
864148 72688 525
945196 588279 525
507751 704823 509
144531 502609 449
110073 74697 354
3383 515702 470
20968 792947 509
568694 613753 434
683614 947979 525
222926 653521 509
804431 656875 504
267741 180367 443
196931 400015 443
564006 610721 434
15764 411038 449
697012 308817 509
429603 47984 449
262579 261337 301
592773 677795 509
924550 486936 525
486003 785234 509
725349 909805 525
576191 468782 470
847309 284794 525
816374 298034 509
296811 687536 509
338804 110472 443
809471 86731 509
390710 190585 443
915601 253481 525
151843 700116 509
981553 9470 525
382676 45113 443
306608 789669 509
364718 557803 470
219383 165402 386
983913 416125 525
199952 327288 443
552989 136385 470
543571 495873 470
266119 110643 443
626866 819805 504
48454 704400 509
315915 166889 443
661435 783020 504
708701 495594 509
422567 660111 509
769365 46484 509
427460 812604 509
28603 32318 285
49566 346953 443
846210 399769 525
493394 423962 444
595157 388379 470
899305 670492 525
990135 482812 525
980838 975569 383
995346 878601 507
387255 175284 443
441398 744677 509
655088 976722 525
497781 434685 444
189916 888694 525
182225 7164 383
974907 968717 458
782477 656859 504
129360 40353 354
96277 34370 351
825344 611114 509
339265 395140 441
592915 976181 525
890862 704250 525
603935 797392 509
761917 262111 509
313472 569364 470
857079 484225 525
332055 871317 525
571145 530641 452
941433 63746 525
607502 585563 403
761405 966211 525
385616 555912 470
250809 791758 509
322376 568313 470
438298 560973 470
99354 55693 351
185873 922403 525
63505 173550 383
314922 483320 449
904232 515827 525
312409 881696 525
237104 659148 509
484025 648823 509
481421 778366 509
749827 394723 509
55216 506848 449
947590 673641 525
52844 751756 509
83726 335631 443
629718 15233 509
934343 223102 525
65744 20398 340
153428 374979 443
158448 352313 443
219668 633478 509
959042 674224 525
537043 482334 470
310348 863241 525
409988 441331 449
707807 817615 468
104273 71761 351
54098 558015 470
77912 748895 509
630429 433822 509
1357 188075 383
286917 862185 525
542717 549123 452
488071 662958 509
986503 941735 458
52414 778226 509
586196 57036 470
812490 81854 509
915514 788172 525
445181 663668 509
913817 165127 525
299512 249163 407
289186 601703 470
918309 144026 525
396823 223364 443
18589 898821 525
27504 938268 525
555291 90274 470
