130938 806072
998534 963825
312538 91120
606885 241244
272788 476897
785248 263401
470252 734808
25118 31635
6841 343039
103511 836417
730410 289991
788163 216227
567696 105936
290822 62353
264298 947038
580175 715607
596843 529264
135496 621249
650470 430178
801614 231448
81410 345909
759622 147813
945786 648705
346614 922624
615675 45349
980349 689056
293983 476064
463477 128110
523017 864511
2704 84451
478876 238031
575442 960313
130188 63384
736366 912468
252696 627972
630607 512709
525422 667672
981979 311480
772844 823752
836783 127802
696693 53435
116197 981019
938889 90006
393838 424145
484324 69794
868240 922775
412126 813177
285843 785681
411304 682975
795757 111328
470709 923306
286297 434864
34018 856234
438305 182150
25505 606193
136851 504599
152345 165554
972358 840433
301476 298005
677571 414590
489133 960844
726358 904957
444916 849802
786000 833558
486636 25791
668092 146424
667665 386740
719392 161675
973753 902187
227460 939285
884493 737317
882198 726805
99076 136074
967911 17501
718608 308493
710535 809694
751674 729000
880633 929925
22397 140008
999508 800556
680840 478243
273495 112324
80534 132890
230552 286067
474212 864002
391764 657438
679501 275277
613371 811920
604812 384517
548745 508491
458830 569356
657896 680726
76074 779666
708709 725190
148685 940052
178435 76422
933911 452137
974294 120600
11488 477416
713599 615841
889958 79097
23235 95690
494131 394601
973873 974389
570455 880822
893015 580279
274484 824958
530743 349407
548932 521347
497769 267769
665200 835047
912185 297029
803962 361174
728814 618702
371541 819330
958207 97817
950430 62474
852440 234800
265022 266221
42741 207084
517614 757358
352259 212615
262159 100306
114951 270391
604473 127280
103462 971934
632713 919468
553968 686645
873847 517362
579798 413233
492103 322121
344685 932679
516041 64322
539539 953421
349646 761029
256075 344391
880154 602160
372122 77865
393990 108258
533139 399766
310873 430093
902792 959763
545462 810688
26450 771909
486007 971421
485302 594319
589322 649473
285705 354736
709283 972259
131151 330018
636302 725124
966976 653850
847592 220909
914501 100097
469258 377826
764292 348935
546336 590483
711895 471023
655430 147576
123451 287458
513826 540841
701664 661237
617236 773903
126921 131072
388764 855520
687355 908615
961993 992760
24226 602675
242434 300021
519308 883913
124069 84488
992099 485009
428992 642094
431570 841708
762177 966839
933790 720460
821197 452023
286144 8721
698696 597075
598660 232859
818326 184708
14893 237033
797729 186891
621588 773333
533115 245278
532696 29268
4069 393498
202333 237667
978438 109936
66537 162048
188933 852080
895003 743732
88843 374418
699563 503519
79690 97352
745890 235767
66769 350958
873355 714991
908220 908646
137447 54771
788043 738724
693379 588999
892896 919466
587935 190437
852269 108231
44320 696820
93910 447287
675154 706180
876517 289311
762256 518782
159995 896772
492676 821789
27309 899138
959246 8916
218278 872950
783931 598414
839698 795603
729142 618153
709066 351904
383478 173076
34175 958373
461073 662873
39758 846078
895157 893343
140585 490281
616172 394636
558435 609101
894866 403341
205222 844297
855905 573218
874899 390034
665825 323784
31970 954581
520936 39145
681616 317856
7173 642386
615467 443350
312362 808730
192137 612224
