566227 681859 509
492937 625726 470
511568 543679 470
488049 872013 525
678474 406028 509
866720 321559 525
950121 429731 525
348880 923651 525
278832 997725 525
836209 792633 468
521870 498670 470
657097 87974 509
50082 60524 340
601416 78016 470
154182 990703 525
384350 607161 470
531442 625324 452
611333 784622 509
917501 917953 264
914130 266736 525
518695 926244 525
68664 53741 335
51389 479382 449
501214 551918 470
257464 231177 381
217487 591749 470
8119 669815 509
716454 252800 509
13687 350229 443
59411 409854 443
383206 572589 470
974157 997551 427
92002 844151 525
918957 550448 525
32348 422791 449
277000 898659 525
933830 652205 525
892136 515117 525
695101 226948 509
355658 799280 509
738614 297422 509
377563 35783 443
303476 484463 449
852066 357200 525
58437 37017 340
990051 432176 525
603877 249402 470
13609 311565 443
191367 510615 449
869633 334841 525
141195 687685 509
58237 673271 509
442187 88968 449
107200 314123 443
41317 680750 509
386061 245231 441
774860 869039 525
435472 121914 449
564803 973902 525
441014 463369 444
895589 758986 525
125437 7479 354
851902 974928 507
647279 308445 509
236517 325359 407
238382 476068 449
966470 824587 525
167145 468152 449
368265 358793 410
26668 233017 443
612648 833505 509
929945 872702 476
70975 351967 443
236026 527296 470
196030 300904 443
936757 67089 525
27417 47708 324
773234 122879 509
23441 78145 351
538378 190462 470
806329 256540 509
213109 457249 449
505166 997355 525
702678 780915 504
374237 715408 509
679018 331843 509
631264 308776 509
412882 504736 444
418157 825474 509
925739 537316 525
83686 167187 383
428 307708 443
96904 883996 525
703491 56511 509
447928 172320 449
952290 330983 525
49612 486250 449
479758 534651 470
10604 651532 509
808918 950926 525
734572 701651 504
579128 744368 509
693984 25663 509
194105 861916 525
912308 509140 525
949303 137326 525
305088 369857 441
233165 780912 509
810879 203827 509
302127 487176 449
449903 141869 449
889786 765884 525
304776 906075 525
787701 941078 525
727968 496910 509
520258 724423 509
577662 28621 470
399551 30682 443
518554 512560 395
513080 163077 470
102371 557756 470
472803 794110 509
427875 153557 449
19964 17273 279
497336 170216 449
441547 296236 449
991936 175514 525
573667 288232 470
273881 879570 525
402780 698497 509
318277 228537 443
774903 471434 509
356709 465375 449
172781 614253 470
786286 102368 509
794693 804327 468
994119 634010 525
785054 621215 509
13123 297552 443
21422 384012 443
827180 404262 509
974350 961873 458
871336 253992 525
157144 852500 525
999514 342069 525
853799 971099 507
245266 542130 470
785739 129309 509
651767 563120 509
731714 695350 504
465215 965392 525
810475 530300 509
580372 82442 470
148178 606116 470
364444 873469 525
121694 649914 509
284823 509397 449
499674 466672 426
737182 206372 509
405947 835721 509
662119 965116 525
632207 275178 509
143388 771622 509
463236 719274 509
874943 93847 525
890618 315906 525
955383 391988 525
407019 186691 443
372850 798192 509
501576 72297 449
304446 874068 525
811377 269208 509
123067 490356 449
622189 827267 509
223569 228241 368
494389 563488 470
327725 856287 525
643411 4695 509
363788 316414 441
429158 800336 509
982720 34390 525
29102 271862 443
522023 546969 452
220645 638971 509
825132 239681 509
694896 811988 504
876482 740507 525
393191 661979 509
388569 920660 525
117515 649176 509
221096 687313 509
17166 577329 470
305307 568880 470
969221 692692 525
308004 342235 384
650227 424761 509
392494 677002 509
708948 240931 509
969435 617175 525
260657 123166 443
951253 56957 525
388384 83526 443
988969 571449 525
620117 73636 470
569178 706452 509
81645 190522 383
438974 674415 509
319180 487701 449
963024 114660 525
623497 916386 525
422008 393475 449
730668 381075 509
826502 544954 509
714337 662094 504
739157 381567 509
222894 279003 443
156923 549340 470
192935 325660 443
699804 541088 509
516886 119520 470
205101 490141 449
437893 444848 400
993835 450464 525
469538 420581 444
709298 768580 468
174352 676971 509
882472 800372 525
299257 915488 525
674497 709498 504
447154 566903 470
750518 598131 509
94295 792085 509
143810 823650 509
416833 211442 449
823650 778654 468
658631 460778 509
501426 597868 470
862960 393758 525
139773 421034 449
909416 173383 525
270027 543856 470
919849 476041 525
110733 450792 449
122376 316626 443
113946 255007 443
