716043 606269
369884 785773
109682 386735
313006 590281
600345 597185
483445 954058
897288 24952
571021 103627
40550 537216
219169 324825
962984 334380
223958 430755
96695 167170
176174 554919
689643 392078
700544 216422
550088 915818
110662 959616
737650 367422
352763 13265
600553 324510
856330 206930
248295 822721
336793 68789
806895 905304
662461 898906
101381 255304
35522 971984
782678 919543
370859 413252
102 569189
228508 922833
279403 976211
277129 364589
270449 658015
841613 310680
70082 406024
347193 326020
851907 459527
59344 123577
880203 710361
753217 3768
322747 625513
683779 745267
744414 903283
19502 494937
348252 662698
998503 354553
818636 613519
228754 652754
952960 96125
116651 239035
253070 517998
597643 788405
604210 728406
828667 850727
898301 5989
832860 242506
892291 706058
281885 728978
309893 315561
938005 323241
208648 703276
990379 38192
74491 417602
222461 533976
141389 164923
973855 828802
831694 484303
405448 895709
809839 361144
777365 838690
318912 17756
976566 62336
492528 905607
900418 194560
210278 903243
191921 666836
675451 556856
260720 340379
614895 382949
451332 555362
463695 351581
108215 993116
299878 892326
77186 889856
507278 793315
453286 142321
150181 267157
444900 989889
961510 738914
793478 358819
282928 477141
330693 947573
162327 465814
618629 244278
305270 594630
72733 663538
448483 213472
286630 177153
933674 12293
926171 949026
843876 289884
350806 847159
457391 892146
948211 17638
494039 89081
860760 7338
56132 390111
219990 294816
755533 123771
285351 701890
470342 42410
227170 246815
226896 944217
395702 871257
637752 619546
627694 869897
70569 541323
727052 336632
549832 410095
951688 808986
924991 974696
624403 53683
762909 625008
195932 535870
33057 512372
745781 600608
262113 929187
854515 727486
737555 408587
683760 153610
965244 740619
430300 453291
387214 923046
170618 240447
319683 83028
571332 236641
913426 834905
109159 498981
482636 301187
406596 184825
55719 697032
514948 825048
944667 666372
136338 543081
207680 222508
253122 622818
534436 358106
259234 577211
812404 921664
326613 15494
141591 677155
481105 880385
795991 199747
620477 29597
628180 387645
954749 631714
393873 168019
447165 973507
844464 202028
460757 488184
706304 356654
243409 156475
596563 859647
295186 613327
889301 14045
322767 840570
867006 390370
276425 766818
483796 567570
559833 928943
195537 503484
92854 601311
6447 523719
793515 351824
551210 356385
628307 814402
998348 833273
625951 684176
97332 605239
945944 297539
806639 104491
811373 772912
679183 824351
509998 306169
48676 143270
356150 317436
43142 603414
245169 328799
264685 913782
777818 428596
35421 465304
569396 804303
805753 424906
987091 7012
954459 718490
695035 722802
523539 469252
520911 900360
547997 839063
133284 701094
947081 962683
671733 835030
219196 76074
10083 515904
287868 724126
405997 491961
485185 136347
433918 385917
665928 747812
730271 404113
187511 752262
375186 510602
594885 48964
71959 493804
130565 433501
743402 255416
677534 532359
612468 371483
538857 296427
670179 540918
785809 53672
624520 139861
435714 5247
938767 198572
18242 901482
11126 113441
202825 888718
246305 75670
727712 783567
297214 283378
886206 38227
326954 613122
451370 494918
752637 413769
687136 818867
551871 332576
601067 942365
368209 31469
