521859 742876
828590 932773
361210 24092
173379 773080
349808 263711
721360 864167
37951 682478
774205 446598
390007 258864
460741 495723
366627 375521
606634 550093
208820 720654
736875 798888
830430 629234
734570 215321
171059 388411
748549 510438
338300 913985
331755 891268
962580 637607
608023 48338
569547 774136
454656 318926
692676 658475
851402 822593
152621 656811
676599 253586
52402 909339
217603 58609
293671 443590
847946 493724
243201 150475
296071 161449
754868 935377
710888 409066
857396 937061
580484 508982
651802 3154
541889 468492
351002 789562
805310 808771
816487 756264
556788 62662
588761 684227
925744 984423
618893 275924
459898 698172
477547 585314
580115 403549
310302 839581
763361 866234
728094 218875
737168 318776
111867 642597
131018 709882
284413 12825
496707 650173
25382 460405
74903 895513
689219 491044
781720 339968
138247 559736
701378 405332
423899 834029
940051 646737
765560 421892
870199 809466
415031 367365
727303 608377
832463 573354
145523 61076
148587 171010
354719 349394
544887 102515
758134 387039
86652 145126
668830 484301
368309 480296
853310 631579
193082 880945
687352 893360
946126 732244
830444 530487
964833 149891
542964 497445
479580 578945
539776 960023
450851 856340
506239 494681
445050 507479
309904 254696
442200 711547
684415 36556
355469 137534
926320 157184
496631 397400
194774 202821
222427 607942
833242 323830
897022 497077
502436 304995
370085 342845
717464 161892
708086 165829
776621 375389
933026 835642
761156 919945
103877 202916
67055 626565
973008 280407
549729 743160
351619 537548
254298 759103
349990 276972
456728 880761
371949 437649
33333 980090
601662 35649
423360 206461
360870 362431
843288 179389
100375 828382
163510 922955
646625 571288
403588 944949
729768 923998
149608 418394
381500 247066
244001 939239
825154 680322
763900 454540
371059 617061
85368 559961
485324 394793
273722 840883
357549 380415
371941 591412
820241 230218
48145 722316
719911 423496
217733 215881
36775 371477
242920 630048
81706 743206
962293 472838
285278 711559
594190 880429
497993 661309
740745 455255
352147 235294
940129 163411
871552 490761
515484 13378
381622 997231
745102 680739
803885 964011
280077 215580
177315 298111
937662 421820
718006 338571
415824 161196
101804 955018
536798 606247
200487 63730
713506 36749
583111 939097
522806 860358
328385 354301
55582 433461
804387 911718
527749 551610
295903 100518
872941 721432
858434 194680
10478 492823
222823 969373
766258 326738
363154 220669
318283 341491
903093 823724
516695 378604
567094 230364
481139 506353
744818 296355
534567 771954
96530 125188
82051 842979
261357 822521
408476 903517
46522 300128
180923 631555
95201 116816
860492 361297
918366 717961
863073 227066
582875 99870
246225 576222
904212 264932
460966 233441
14582 27786
777345 587550
158723 179417
763323 75212
300151 716279
594838 792112
928332 404389
244543 213429
60001 799495
517809 593135
522139 652801
417375 789981
977940 589628
799491 161298
257124 539740
133366 809642
276136 561925
183623 622486
870699 418427
773042 728337
60469 608267
364109 672658
637345 651685
411731 182586
486332 528
108826 33902
410433 93334
796466 409982
566211 987137
482961 232276
433020 979370
66390 364212
297292 578269
33917 76454
674438 888246
956588 694394
