559420 98168 470
409336 858244 525
891237 912878 476
869756 886663 432
457804 153794 449
825414 76511 509
6888 760346 509
619084 249910 470
811913 584969 509
625165 150528 470
342357 459565 449
10111 706506 509
428902 229417 449
168157 687405 509
611730 584884 403
77216 13007 351
879461 729458 525
25142 444055 449
302932 564335 470
401985 724548 509
432941 939298 525
70556 680554 509
242564 663681 509
566105 781144 509
969835 718814 525
616114 791088 509
292658 998159 525
984405 242641 525
669463 893661 525
167122 728084 509
142309 774877 509
349902 93239 443
429993 354154 449
403094 719662 509
212175 789309 509
815076 150323 509
25053 895580 525
742620 768569 468
606708 871691 525
424494 121983 449
441611 699149 509
705639 972992 525
343530 620717 470
151165 474621 449
751713 810144 468
484949 211730 449
834093 500578 509
440706 835776 509
241654 185528 443
824545 962954 525
690229 809129 504
977125 810485 525
685245 320879 509
100226 59551 351
79334 876370 525
983828 590175 525
772107 424148 509
482618 414853 444
223734 438893 449
681584 625918 509
602455 773705 509
422422 65613 449
978324 506503 525
317614 313691 353
996847 727332 525
765158 451669 509
590204 675063 509
205624 9472 383
429289 123959 449
302832 953239 525
130925 578537 470
112475 394107 443
837397 732950 468
997158 729708 525
193775 910237 525
21316 863107 525
831125 950424 525
954468 129401 525
729443 574556 509
260870 102586 443
723317 200239 509
63209 106418 354
206433 447925 449
686262 523694 509
599603 262762 470
4676 394157 443
840985 19773 525
15424 61361 340
513043 453059 470
202304 425881 449
720357 446537 509
53994 377537 443
49657 398932 443
607388 578730 434
755648 259467 509
462523 894990 525
744600 930527 525
794980 899188 525
256334 623074 470
865328 57103 525
723819 313058 509
215613 41457 383
500717 121297 449
373087 96949 443
90849 642889 509
730757 842376 525
351201 201649 443
903337 650211 525
520491 463365 470
80794 174528 383
947310 341696 525
924815 727392 525
13347 911201 525
922531 225224 525
582345 85387 470
16694 859441 525
335036 146078 443
995423 463975 525
479177 583875 470
934391 173291 525
603975 11973 470
318790 745052 509
873442 383560 525
577569 180906 470
183237 962043 525
17008 511911 449
116535 783645 509
706356 746885 424
443189 441189 356
325368 544801 470
782547 567019 509
486206 794370 509
951073 923052 507
66036 371743 443
416298 828689 509
868754 730635 525
495663 363913 449
283267 980290 525
775673 591463 509
93736 420563 449
424308 244889 449
292807 382918 441
581270 400050 470
738340 845960 525
870502 414366 525
403063 946110 525
749825 924572 525
322373 930983 525
601697 126006 470
275478 683931 509
895794 331683 525
189405 688279 509
364434 229906 443
998149 574371 525
154930 687498 509
116898 309807 443
927342 246063 525
820265 677444 504
517702 833714 509
290436 401681 441
122196 915731 525
876196 77284 525
354280 771965 509
556004 952300 525
646046 639586 416
827611 584569 509
486339 403058 449
31163 615389 470
91859 353659 443
248881 149059 443
854523 371397 525
6485 341416 443
49200 806727 509
287919 246469 407
352634 106411 443
742416 138509 509
545207 714771 509
685332 848412 525
389990 260252 441
785950 963236 525
315761 162307 443
338442 176934 443
948181 835319 525
556720 219121 470
963987 102263 525
783866 591219 509
746075 406788 509
578531 985712 525
934209 809175 525
180863 811325 509
657015 207603 509
361953 762741 509
286720 686630 509
872826 431813 525
351177 17558 443
78560 936204 525
670308 31390 509
639189 437706 509
892787 87223 525
729634 563049 509
747166 818065 468
472042 20861 449
731392 512647 509
223950 437972 449
688746 506252 509
