134022 886651 525
772492 353949 509
72704 766882 509
89000 350216 443
917931 508421 525
603071 424566 470
110335 848271 525
457328 688270 509
887514 19733 525
599226 709368 509
19369 130461 354
415015 583222 470
259803 598050 470
340986 152105 443
606686 894513 525
940527 707529 525
687514 715558 504
622449 842757 525
790073 896627 525
905417 615594 525
41047 657216 509
940516 172949 525
868777 518184 525
209945 817687 509
655737 99026 509
488962 848580 525
529141 802377 509
544104 59784 470
246350 12749 443
860616 35622 525
285230 124228 443
132497 303430 443
323810 607226 470
9280 889567 525
654627 402433 509
540815 166145 470
776594 542953 509
365027 200996 443
807957 677086 504
158030 636738 509
929313 375881 525
50934 679250 509
186171 995903 525
576544 929533 525
549763 532996 452
448709 8517 449
880675 710618 525
696113 72357 509
823369 873080 525
704134 409964 509
735876 574661 509
774325 233497 509
677282 976628 525
456529 906305 525
699525 46166 509
155399 993533 525
278372 586027 470
129422 18633 354
51030 500264 449
916750 321700 525
350364 750002 509
964816 434531 525
273065 394193 441
415226 493220 444
796445 26905 509
435130 973358 525
107513 766944 509
840591 88304 525
201896 396381 443
655010 616014 509
705203 251316 509
855325 894837 445
697992 347780 509
711431 737964 424
410943 416178 374
518973 474863 470
869857 453067 525
379028 800646 509
495009 481499 426
689591 227181 509
738883 437103 509
996693 830182 525
218726 652426 509
750185 109127 509
76386 859826 525
562743 334555 470
940813 398842 525
243837 713335 509
518408 938120 525
167973 885297 525
249997 131357 443
37082 829059 509
566333 638181 509
943595 433410 525
674431 534662 509
955420 726367 525
116458 706124 509
876958 764063 525
576551 187814 470
132310 218236 386
807365 264213 509
622308 73917 470
676441 528469 509
2370 624077 470
760117 144024 509
773827 232087 509
156944 169430 370
995426 376841 525
733815 138663 509
224205 417174 449
887739 148953 525
967527 48355 525
82619 958681 525
467560 436661 444
182555 535473 470
565921 346825 470
31107 792428 509
818947 912945 525
173813 888397 525
405511 18031 443
217747 224338 355
422355 463230 444
2705 750913 509
185254 530543 470
475818 338654 449
322190 749247 509
792046 488965 509
683900 517068 509
668309 474937 509
213027 820254 509
615724 224364 470
859415 232071 525
912656 997986 507
989702 129766 525
718293 880461 525
219727 781920 509
524931 271570 470
998268 681654 525
522982 120067 470
928040 979790 507
468040 650113 509
431657 766455 509
593537 728765 509
233875 602355 470
644833 469936 509
742975 186439 509
627765 463071 509
719705 284117 509
531859 405692 470
61850 95292 351
86356 957600 525
120859 509904 449
957675 557712 525
693055 723610 504
779705 144966 509
737047 572582 509
978275 366557 525
257109 118153 443
363267 19202 443
991751 124388 525
912504 851568 476
653475 735674 504
697756 397602 509
875477 254404 525
969434 763614 525
806224 393800 509
121769 473024 449
719860 823389 468
906004 994835 507
989350 661702 525
919565 271157 525
747638 910134 525
408688 651003 509
869750 571185 525
680986 954443 525
460562 862795 525
621285 656367 509
434122 269358 449
402901 805897 509
629492 31522 509
888254 442594 525
271848 382171 441
403042 80021 443
616013 75391 470
786155 470012 509
626374 192876 509
751533 995840 525
828537 789061 468
345732 837869 525
924190 921629 445
648238 69573 509
606285 92552 470
465589 240148 449
146138 121364 375
67366 18262 340
127081 746304 509
455753 124348 449
545015 71450 470
670518 687616 398
812802 219925 509
683736 202126 509
649444 320452 509
781646 174646 509
99963 579176 470
623486 307247 470
794739 510501 509
855892 356149 525
