861933 96243
678041 216470
977354 665445
546046 228179
752312 156325
842817 833027
409360 522903
552316 28562
335099 694489
373620 564377
172630 243152
305810 631896
434051 401515
730965 199451
789770 6399
282317 417614
419178 898175
952400 18231
491819 917579
582797 118176
272598 205652
134006 237036
881113 311318
447951 987910
452257 836484
506954 431144
728115 473427
957016 372640
725246 515908
600270 22899
649548 965024
227736 454771
839570 752872
967545 862507
445597 980054
310289 244765
789387 660128
231797 981163
138371 4205
792028 488533
608934 471957
675920 879890
192987 489710
759742 651258
974060 62170
540406 274488
949690 152742
166091 310015
607805 726795
409939 584158
654472 491706
37176 381747
268621 827187
70880 132869
723366 330055
543697 214155
996832 722593
273300 345601
761997 177685
21486 768658
858153 607491
384792 667023
209497 248570
270805 448678
510358 782962
774520 857960
907886 961389
485503 232085
339309 439309
523350 882077
883851 301233
524704 416929
126490 650744
345954 893438
809255 450409
921234 985241
517868 359933
71923 60359
986168 559383
241567 136645
980610 349082
587298 235493
548695 29514
300677 475108
687015 137566
67965 250805
883890 486349
390479 216939
304470 690930
605776 60390
814560 245901
792932 299010
3190 346488
995983 557266
788109 563608
214825 248634
617439 101677
259791 44046
627449 533404
310890 798152
577942 674186
722441 13541
209611 817992
840307 213951
75528 206369
5425 369181
487627 164919
28597 365486
303320 820913
202529 231542
622948 266578
898075 390330
858088 495813
768451 147741
417016 130170
268752 939041
781002 348782
819852 386689
694995 521018
632500 313305
458532 702939
34404 924641
130654 148751
588046 87108
47359 501081
919187 418507
654993 40755
209901 256150
84818 138651
46977 877171
692412 88781
799435 229077
360169 541796
140412 72841
686653 172053
340337 352434
716408 349557
332295 701080
440932 709668
708982 549749
357883 477291
749720 959606
12114 286414
287310 591291
591036 496141
775374 255410
924143 227126
443231 24936
327868 794218
987916 92454
702740 716456
240206 376572
17727 645012
106595 754294
49296 151880
407535 568499
630573 389668
316915 447216
701849 704850
666260 156155
448797 404587
983094 402589
15282 954926
366653 816996
62219 705868
391673 319610
245635 265405
830793 714248
643063 559993
72424 147329
296796 953066
541535 412848
868003 401074
330337 120986
942005 451782
178116 506918
955320 976638
350231 863054
212853 421271
770458 581488
687422 577078
915176 883471
738478 582155
298359 548255
768240 670766
791600 189531
576663 1222
714230 973961
260122 413785
63687 984829
988119 708515
472431 559813
341923 551584
429665 679297
946790 589381
211684 13844
640217 674980
351977 531841
204828 562225
518840 85710
778806 470104
187985 233540
490004 139537
684805 194987
468669 836743
