189821 647371 509
162513 52850 383
465785 833992 509
473219 915923 525
18230 73174 340
487152 36649 449
842147 887092 445
913433 74659 525
232528 969350 525
372972 34821 443
696534 118271 509
915036 355933 525
323506 335839 384
392230 704177 509
682491 441943 509
977309 65952 525
814754 13398 509
324942 204632 443
339783 60070 443
788165 819668 468
901277 907008 445
69152 830969 509
377480 833968 509
322396 321904 247
43211 880277 525
693242 324722 509
781643 47269 509
233373 284844 407
896356 598144 525
473280 141555 449
443981 11532 449
597695 332743 470
332499 771374 509
602220 397779 470
801994 784797 468
162009 183136 365
439981 672701 509
732521 875222 525
230112 985977 525
87212 399094 443
438553 397021 449
154337 827407 509
378938 336775 441
371413 568884 470
453650 634399 509
89470 844472 525
744524 887364 525
411863 864746 525
537475 805011 509
333224 359412 441
306062 330180 384
624941 749759 509
180402 70247 383
572684 456936 470
291040 91320 443
464432 99113 449
908299 921391 476
381070 852410 525
561408 970659 525
719952 600170 509
144272 438217 449
540314 692829 509
176530 895100 525
743877 13829 509
706946 182443 509
251317 539993 470
740871 450335 509
274493 487030 449
332274 716151 509
66182 514442 470
934157 386859 525
655762 616728 509
760400 711383 424
240624 477613 449
74146 12676 340
29143 337536 443
287529 629545 509
898851 479406 525
376829 203604 443
254288 702538 509
111916 848387 525
309421 761684 509
157782 522442 470
218955 430973 449
47443 742955 509
861887 573684 525
560701 657434 509
371691 625491 470
607455 851141 525
561406 929913 525
425927 566532 470
480406 928318 525
855815 33474 525
911672 123445 525
980757 789168 525
918861 494519 525
226634 988915 525
976770 210047 525
139071 646355 509
541041 878067 525
836682 166803 509
22889 679486 509
530373 23944 470
316745 912689 525
546176 1923 470
244221 18718 443
92008 883134 525
822609 967193 525
694719 805612 504
804082 271809 509
720186 390381 509
155204 448955 449
338434 453199 449
765683 884080 525
320835 575469 470
809335 286352 509
593372 87068 470
816790 592725 509
732487 862520 525
698377 828753 504
352658 923629 525
177475 688732 509
562168 42814 470
929667 553439 525
376738 355005 423
184025 839677 525
41073 207257 383
666070 762471 504
716252 832501 468
329347 156896 443
132836 704141 509
758707 423609 509
729173 391999 509
778888 891794 525
372353 206088 443
603171 567468 434
68689 367221 443
694380 476514 509
584685 404740 470
451453 54438 449
613591 363954 470
2136 388204 443
885091 610153 525
19413 655156 509
557393 501631 470
21616 980559 525
884708 669104 525
59646 653202 509
621912 38731 470
194307 480598 449
772331 253947 509
572364 232278 470
465419 910313 525
649643 611835 509
771717 356176 509
702986 994520 525
775929 660173 504
443952 772389 509
452397 377471 449
531685 305039 470
314917 241266 407
986529 369699 525
993607 469377 525
126209 840123 525
598696 918262 525
851930 317280 525
501740 179382 449
461852 639032 509
999590 669981 525
565939 99745 470
976510 390981 525
770045 92184 509
74164 855806 525
576720 80029 470
558341 24607 470
79518 562596 470
809614 330104 509
3179 659667 509
806984 895422 525
617844 705048 509
81008 7245 351
808970 975242 525
693478 572158 509
777201 964171 525
975923 992972 427
368585 479009 449
333288 564451 470
168275 386896 443
583547 763875 509
442476 343393 449
538120 601434 452
67455 281280 443
809187 539089 509
239185 956523 525
834588 886730 525
903399 316637 525
288526 758930 509
667049 238979 509
708528 169635 509
432033 81942 449
499270 601457 470
595161 744656 509
795590 392587 509
269445 315055 407
799323 243313 509
593442 141445 470
326879 669525 509
578575 889810 525
641039 100759 509
314322 476226 449
299361 463186 449
441317 569547 470
396046 646004 509
906645 868328 445
286348 13963 443
543414 251458 470
31515 838886 525
5507 527270 470
553338 160390 470
974323 46208 525
341883 824098 509
684697 139657 509
644525 428422 509
284179 544552 470
652186 377828 509
