751524 566994 509
698721 500816 509
335419 298710 384
121967 18226 354
991557 241408 525
456347 879412 525
243544 204516 443
190120 508980 449
726817 610400 509
408383 859621 525
481748 708729 509
747258 926975 525
346738 548728 470
239230 934143 525
797859 496361 509
40240 223443 386
536199 456071 470
715665 40121 509
124291 553661 470
715891 564380 509
976537 903375 507
692238 365067 509
981606 628196 525
913033 575894 525
964853 656334 525
924811 108494 525
74519 833774 509
3718 436761 449
36937 743497 509
339934 303927 384
657807 471312 509
298692 566369 470
269197 114797 443
518065 642543 509
866181 738176 525
962926 876717 507
838485 20520 525
133629 275479 443
222296 308502 443
5578 340157 443
703468 23498 509
336514 731990 509
730061 929289 525
250251 753362 509
852197 884280 432
783908 57704 509
41514 522755 470
781316 720001 468
547642 378149 470
531100 642488 509
221358 661543 509
811068 239217 509
446295 27685 449
405779 307585 441
651560 270453 509
712906 939947 525
942760 872837 507
335519 736595 509
834755 907763 525
818580 694046 504
825952 487718 509
422051 561788 470
24468 783266 509
359995 354174 379
335631 632012 509
401567 163644 443
863670 573886 525
816573 557909 509
379752 409450 436
819241 304962 509
890085 629775 525
450796 230032 449
861493 893210 445
681193 872027 525
181939 241011 443
109861 905792 525
953036 917613 507
277273 478409 449
589688 752984 509
990191 908942 507
627034 490717 509
686852 624631 509
378994 29159 443
398115 735407 509
876170 68810 525
114035 325272 443
415818 531433 470
750107 647632 504
415954 289017 449
52118 960618 525
819867 366976 509
714067 565827 509
552198 281252 470
389538 85335 443
377109 609910 470
815288 513971 509
994632 930454 507
16327 620379 470
736074 714601 424
32740 43888 324
924658 848257 476
763269 194515 509
311577 414326 449
105649 560879 470
837933 9838 525
74107 973176 525
932056 51029 525
186112 763708 509
728103 816914 468
581702 964257 525
715297 460778 509
202339 164812 365
794634 926292 525
198266 412861 449
66026 214636 383
407187 386464 436
398691 640718 509
365221 991374 525
814950 131876 509
527197 353692 470
327612 307383 384
784524 575459 509
748631 82718 509
717199 701291 504
633364 86600 509
701836 786326 504
181247 563606 470
410757 906107 525
312331 246883 407
710574 811729 468
386719 225963 443
315349 211943 443
718959 164497 509
576774 742723 509
18152 293545 443
750866 33945 509
655559 601829 509
759548 1346 509
609180 416710 470
488174 796370 509
881467 406756 525
1842 47430 324
777057 495068 509
887234 759636 525
302672 317599 384
968663 759617 525
200067 960837 525
561789 364174 470
521570 771610 509
610629 427001 470
440399 428762 400
475303 631979 509
979149 473611 525
132893 171829 383
859357 499528 525
944273 858243 507
527567 923025 525
793508 984397 525
747432 379337 509
829016 667629 504
38714 62587 340
747215 236448 509
827733 191880 509
95543 389131 443
732057 444619 509
145434 7017 375
420001 53980 449
652646 898649 525
278363 923677 525
36646 122256 354
890103 935556 476
50928 955097 525
497872 55764 449
986095 682705 525
46502 432518 449
688668 154006 509
249120 86660 443
634983 527027 509
873060 763262 525
265643 554087 470
624253 855206 525
951778 531530 525
105466 244742 443
794501 646276 504
919893 182514 525
119242 550563 470
952720 342103 525
927039 421753 525
298427 42898 443
752978 644447 504
471424 479540 382
392284 282971 441
252855 803911 509
282888 162515 443
275097 842500 525
744345 883194 525
376048 917391 525
378412 826459 509
338098 936412 525
28608 333605 443
166022 948497 525
662090 56913 509
716491 474687 509
932555 558128 525
284587 648690 509
451849 569665 470
326697 621986 470
94226 285596 443
49407 618483 470
722541 705144 411
508860 730414 509
803063 971937 525
284528 868618 525
43612 229175 386
178757 286987 443
700608 482628 509
871566 746857 525
556348 497426 470
391373 485782 449
557118 394228 470
389227 172516 443
985270 318773 525
253144 658426 509
47503 620511 470
589401 989230 525
934374 142951 525
864978 586355 525
648665 968834 525
534553 96687 470
448618 245325 449
973476 138111 525
489403 146430 449
294714 682204 509
73501 530512 470
609526 835915 509
642678 189598 509
563321 87113 470
160614 494518 449
349686 899085 525
292659 704927 509
643401 585433 509
206577 527464 470
43465 465214 449
964572 743083 525
495986 40525 449
451237 982475 525
789349 487752 509
871170 716694 525
144550 815386 509
856725 933451 476
416611 918005 525
727432 290994 509
579113 282347 470
796576 399975 509
302187 56268 443
389184 918984 525
85341 730483 509
208626 251045 443
173063 182089 365
952456 684937 525
958200 443928 525
340694 33081 443
65091 563825 470
76007 636606 509
603168 836383 509
91372 623021 470
728337 335788 509
884888 710626 525
178722 468295 449
762160 763893 375
466848 278057 449
190653 618876 470
346412 33225 443
887994 759820 525
197171 355843 443
440854 275294 449
699964 839892 525
803885 270572 509
466206 603587 470
785441 430567 509
129573 843643 525
36638 275046 443
940530 403690 525
416554 463636 444
648377 940226 525
852740 834494 525
600741 364912 470
616988 980483 525
875481 413919 525
274284 361866 441
276312 163616 443
724793 180175 509
561007 608424 434
903720 108266 525
237418 450197 449
185880 117665 383
732130 968066 525
162863 50365 383
110035 907334 525
855336 793180 525
997756 308258 525
678669 49509 509
576234 623458 447
348694 861602 525
266988 985686 525
401206 47520 443
800582 120535 509
587398 668786 509
731724 747891 424
394966 444053 449
7980 352686 443
142923 909414 525
316968 744491 509
399087 622727 470
382948 472528 449
826504 300738 509
676576 984104 525
320453 750062 509
854451 741545 525
697667 89632 509
145838 27224 375
306918 217795 443
425065 155112 449
865206 158532 525
571511 634076 509
455721 783334 509
935800 303391 525
245515 253890 350
870659 434265 525
289470 133009 443
939064 422223 525
341879 898379 525
557708 518688 452
544302 651111 509
835615 310046 509
797547 966928 525
616163 474317 470
864195 59418 525
43508 235489 443
308250 154351 443
291342 31564 443
44961 627446 509
663105 722212 504
350845 207873 443
330034 753578 509
975194 95921 525
969382 921090 507
888351 473525 525
562276 381889 470
196413 754482 509
343337 266432 407
482700 881207 525
760227 965847 525
405927 295470 441
957640 536616 525
210472 995643 525
284788 667875 509
16040 969905 525
111661 778003 509
71560 560155 470
568797 247809 470
28733 953831 525
13277 437711 449
149140 120700 375
583199 711426 509
673370 637050 442
501222 501839 320
651101 699823 442
234233 516204 470
43296 753194 509
527293 936367 525
386088 708961 509
150239 167505 383
309140 306572 371
672636 849898 525
353238 450111 449
497779 269526 449
394848 866964 525
221633 484811 449
977272 726949 525
363444 45303 443
830451 151201 509
738378 580348 509
885032 175637 525
751972 544837 509
309519 550868 470
416165 79251 449
225890 921889 525
14637 448880 449
421033 542791 470
296999 887440 525
16240 677263 509
25082 709 282
583403 736656 509
444455 761696 509
339543 87941 443
254118 98766 443
672179 132465 509
941249 592758 525
709780 931707 525
985718 627640 525
527045 757542 509
496091 689787 509
801740 610164 509
985576 884376 507
842349 624603 525
560279 411530 470
13199 721253 509
892576 832941 525
58091 601963 470
147336 824493 509
539674 27892 470
520654 348172 470
666224 239940 509
626386 616267 509
717217 959034 525
444676 98344 449
299091 90243 443
981824 758675 525
169502 377464 443
560209 477311 470
376856 296842 441
257551 627620 509
573774 698188 509
220620 121349 386
534587 219389 470
803380 118815 509
24136 968522 525
54584 408166 443
493475 42050 449
607554 54962 470
418293 688186 509
451744 345561 449
463882 445740 444
599100 348498 470
525549 45642 470
809796 73395 509
274882 444041 449
379207 41393 443
905527 25554 525
894113 538134 525
426782 35336 449
595796 53328 470
265683 753458 509
233070 732734 509
640673 327593 509
745290 523944 509
673544 760820 504
90416 563640 470
404891 887271 525
423279 778785 509
200658 919172 525
192711 132452 383
98911 31869 351
684645 257762 509
326532 238431 407
970234 130163 525
274141 473572 449
505107 620518 470
690487 40481 509
516350 571174 452
801698 530576 509
848372 387915 525
818425 209369 509
121651 497177 449
14840 950510 525
402037 733512 509
385998 502872 449
952369 952568 414
310716 935619 525
233867 107514 443
66191 895455 525
867144 498297 525
375128 635267 509
91998 311030 443
954363 132945 525
443409 65590 449
108928 223590 386
49173 673442 509
413806 868610 525
896223 93954 525
352311 399018 436
471140 988467 525
20284 950744 525
809562 809178 300
839965 385103 525
100762 89251 341
986976 428860 525
543657 100087 470
149841 615239 470
968168 593745 525
482146 145677 449
423833 431304 374
990531 993346 352
618379 224047 470
421615 660906 509
381738 980827 525
121518 321063 443
985671 125537 525
405626 830502 509
796959 874948 525
862178 363418 525
496767 781888 509
774849 292933 509
359974 38291 443
804530 461874 509
161592 631436 509
251803 36414 443
712244 140606 509
807531 332578 509
372223 301034 441
331385 74770 443
419967 523123 470
990511 974602 427
267632 976602 525
915185 784005 525
68815 542609 470
962309 475426 525
706269 795250 468
728122 472128 509
160541 3660 383
808003 842082 525
443537 147909 449
430597 914847 525
123310 836556 509
384503 17867 443
969665 855589 507
845145 76065 525
81876 13022 351
346106 954354 525
102586 61472 351
80398 884538 525
445704 495357 444
426717 175250 449
742114 13102 509
699682 851956 525
223840 172154 386
450406 939950 525
997203 972445 427
496011 823204 509
636943 947707 525
984228 342457 525
993762 133185 525
279572 634424 509
935991 447548 525
28043 18872 308
853640 906357 445
463937 14962 449
989629 878600 507
753031 651474 504
859834 830760 525
990000 136455 525
146649 595053 470
236414 139561 443
815530 619749 509
404132 754074 509
258208 769261 509
723396 280207 509
583945 308451 470
903665 809788 525
516713 787697 509
122120 274873 443
466534 609382 470
143970 843755 525
273323 565215 470
304933 560231 470
993832 895855 507
866588 145255 525
893287 897466 370
908753 368212 525
122285 223153 386
138208 688294 509
710945 187315 509
144961 926581 525
309048 2909 443
933137 600123 525
431549 421835 418
863655 318417 525
552752 613600 434
241534 467583 449
587383 199220 470
565850 625288 447
118358 919636 525
142359 522406 470
421095 523139 470
950708 198651 525
875852 385696 525
109000 124983 349
701063 860441 525
557712 335163 470
774483 822643 468
510832 408356 449
665695 206571 509
304102 245381 407
3215 440299 449
855113 225925 525
416732 993444 525
487979 441099 444
290708 28433 443
944835 297604 525
290533 260774 407
992884 189431 525
965088 736490 525
398724 948053 525
403303 828456 509
986809 606762 525
364360 393 443
895051 819445 525
303829 524961 470
331841 24659 443
343246 770019 509
548481 815538 509
987465 593031 525
746635 668326 504
12218 29992 308
812620 979903 525
858719 397942 525
667717 501860 509
168778 38038 383
70418 721716 509
884943 128620 525
677854 621532 509
884345 373941 525
293744 937449 525
307950 436600 449
499843 998371 525
440872 126353 449
481310 927515 525
503754 523388 470
780442 383087 509
733349 883257 525
254461 430821 449
116540 197565 383
403494 944005 525
137660 247706 443
191544 439418 449
161793 215393 373
999196 679115 525
751207 780653 468
204193 760701 509
230986 174123 443
711332 522477 509
240864 146782 443
750196 253582 509
136417 583472 470
616222 374618 470
416729 80966 449
129242 213625 383
868046 103203 525
966669 399955 525
925087 197315 525
685896 721795 504
881774 35852 525
57642 114110 354
938881 691988 525
690552 562410 509
56515 961487 525
642747 883195 525
286210 880 443
565963 418775 470
163155 482327 449
767465 977066 525
378205 211031 443
398645 606820 470
626892 982949 525
71402 976764 525
272769 259519 407
114169 736755 509
480363 664479 509
184613 696477 509
639299 24432 509
130246 733336 509
644203 583104 509
370883 968218 525
530927 386503 470
18424 919892 525
85545 717145 509
160337 803467 509
155296 97847 375
261480 847422 525
593050 534953 452
881674 379784 525
326503 302924 384
18115 822428 509
453606 372833 449
47472 445128 449
865222 229458 525
806637 633696 504
367661 332274 441
36373 626177 470
876992 953888 507
546522 585356 452
569300 992681 525
843927 846990 401
340977 553334 470
874900 377820 525
549922 705727 509
119214 692342 509
837878 255716 525
781583 626799 504
880014 803449 525
864582 199833 525
972169 176193 525
393108 407206 405
973309 192789 525
154697 605086 470
813431 637858 504
326904 743300 509
30322 167237 383
756706 214176 509
132619 447585 449
439797 359638 449
332265 618683 470
879773 698813 525
673716 839290 525
283205 48305 443
376355 534932 470
719292 927279 525
759386 637253 504
987666 329380 525
959863 771470 525
30484 644149 509
725637 430412 509
199703 232250 443
39926 469331 449
299701 641494 509
665449 527499 509
309463 184161 443
678229 797113 504
199696 234904 443
235913 22758 443
114123 775652 509
331636 584517 470
918471 113498 525
579457 62941 470
318748 889135 525
901019 347233 525
942543 372923 525
794597 506750 509
484394 956170 525
765567 749631 424
488506 429391 444
524496 868313 525
379408 810367 509
983255 272846 525
852963 439319 525
723204 401214 509
545897 118422 470
836163 818973 450
933565 241188 525
640274 449008 509
74972 204668 383
870842 272870 525
613363 562449 434
998724 54402 525
967759 263258 525
141112 245729 443
516580 186112 470
11208 339416 443
682145 685684 380
127752 467455 449
144175 245671 443
867027 382984 525
18233 169839 383
35331 279402 443
497242 482163 426
630539 779622 504
637748 878146 525
560610 207064 470
242864 242137 319
515064 14952 470
209594 405424 443
999347 939866 458
811444 583689 509
613736 855895 525
560602 543746 452
905482 602157 525
416820 209723 449
726935 316702 509
567995 302172 470
977662 435527 525
422837 995947 525
872474 814030 525
