669056 346375 509
212492 343272 443
741613 385083 509
77880 434532 449
710457 891702 525
334083 856934 525
481331 45167 449
910596 349476 525
686252 373994 509
915266 629328 525
477396 579485 470
565812 962159 525
883610 247593 525
454563 315726 449
805565 411802 509
977988 147795 525
697934 31296 509
708100 107931 509
398584 847326 525
483913 115343 449
539778 108010 470
148418 947216 525
576862 995891 525
372972 712508 509
951524 199790 525
246836 651731 509
894226 10182 525
663711 993964 525
5585 167363 383
537842 412773 470
828147 454699 509
913138 885629 476
705325 75213 509
126408 675458 509
351892 536334 470
773355 710641 468
18208 579309 470
74531 524326 470
409825 914104 525
419244 480650 444
225916 11025 386
836870 612941 509
838031 898163 445
820907 527502 509
533484 905560 525
754659 838392 525
593565 349937 470
675116 949231 525
663069 783813 504
62729 842855 525
422528 452406 418
714161 353372 509
290423 736937 509
895296 401217 525
969364 301103 525
437755 858710 525
45539 747942 509
4259 731968 509
137174 264587 443
97711 803586 509
203585 594083 470
289273 719105 509
701494 644681 442
223358 558233 470
197533 914033 525
693558 952172 525
525229 453438 470
405936 405757 237
637359 580154 509
999690 364079 525
805262 500649 509
429592 377345 449
242094 934651 525
739543 827261 468
77215 448057 449
163232 827428 509
985032 737901 525
493881 69066 449
747143 535067 509
310391 546742 470
677245 250014 509
659197 214973 509
371816 52811 443
825968 555283 509
546817 24652 470
814887 534304 509
820200 162131 509
980310 125516 525
443867 684644 509
857099 642039 525
297238 970737 525
429185 388916 449
853824 388729 525
406410 262704 441
429329 436490 387
252554 137944 443
512634 206728 470
825855 166796 509
978035 860040 507
780739 322797 509
82421 776760 509
391887 323743 441
848065 647542 525
541842 623371 452
420928 988726 525
854368 148595 525
276464 5272 443
360145 490324 449
110826 59408 354
425898 465115 444
871966 423980 525
898523 158867 525
303706 803596 509
916786 551168 525
582166 976607 525
828414 937743 525
351922 25988 443
250166 613259 470
21400 522380 470
389730 577377 470
278738 229233 443
30711 769298 509
471898 983478 525
942949 61172 525
862069 235843 525
290283 603239 470
926093 492436 525
136454 164365 383
962449 329306 525
90255 822618 509
197901 311639 443
331244 561899 470
165154 608658 470
684335 266770 509
371229 24881 443
76944 227716 386
611888 881306 525
224716 720482 509
757232 899355 525
123542 618543 470
796572 934673 525
943701 129363 525
409413 94392 443
537490 646649 509
61991 914726 525
93336 502430 449
773802 384733 509
898588 800133 525
757664 212303 509
910376 144725 525
60227 861144 525
896414 521121 525
622146 396845 470
145319 23482 375
848640 96780 525
287866 334437 389
543537 730971 509
825022 321904 509
581839 241563 470
444984 776272 509
16273 522340 470
286912 942451 525
134767 631798 509
959848 314118 525
270767 337916 389
496557 159019 449
297383 278175 389
765410 337964 509
561410 639689 509
395560 367030 436
448933 645295 509
376960 912074 525
886665 59012 525
574069 759682 509
831782 234490 509
270358 869333 525
269191 49332 443
595787 363158 470
129506 922480 525
878631 518660 525
866998 557448 525
822914 793062 468
808672 417777 509
29485 849137 525
627828 410574 509
689547 949984 525
790894 8355 509
748018 828031 468
385634 644506 509
371480 233546 441
887445 943682 507
966741 17717 525
42490 348107 443
906933 963766 507
880226 280283 525
761414 431519 509
609574 302625 470
586906 383045 470
362640 718130 509
964577 557466 525
508594 98828 449
982364 34428 525
475425 233251 449
845863 119604 525
593595 45303 470
383473 479809 449
204751 635950 509
588817 935705 525
828959 736810 468
500241 817838 509
961184 385233 525
487207 649963 509
523863 149379 470
739687 609729 509
331516 743129 509
385038 280997 441
466088 639153 509
262137 285755 407
430115 404770 449
670979 731082 504
391935 489090 449
471046 410194 444
482505 769574 509
296541 657708 509
677640 841259 525
857364 487060 525
177580 215497 373
406230 724850 509
107463 982582 525
926255 528060 525
984056 55272 525
139297 507236 449
370256 5406 443
888732 16258 525
832889 773806 468
589693 218884 470
503365 548564 470
429698 21908 449
804630 511118 509
975180 659334 525
246853 842868 525
222525 92420 386
236258 970933 525
212403 676644 509
507952 823030 509
112977 127559 349
920370 869039 476
824401 678974 504
654406 948489 525
889439 44901 525
510788 287162 449
62353 301516 443
76414 986603 525
737868 548774 509
649929 969801 525
110517 426042 449
782745 701028 504
781280 508678 509
68916 245514 443
