711370 512009 509
918342 683711 525
220719 546853 470
791675 154732 509
638202 267679 509
20024 617837 470
209622 381108 443
835785 336534 509
393368 660154 509
634217 383267 509
925529 604568 525
408808 736383 509
39852 744415 509
796297 328460 509
774322 999603 525
61780 67250 330
47463 398689 443
773225 26097 509
588831 668521 509
405152 780531 509
549304 923783 525
931665 573526 525
341302 764201 509
867292 873897 432
364508 703490 509
964181 530610 525
933609 681727 525
618075 602865 447
118005 478 354
720037 828600 468
207024 791312 509
187626 207644 373
828257 795109 468
565507 944659 525
391388 343067 441
531578 682283 509
481119 825709 509
42862 195992 383
53833 971266 525
305252 731220 509
170196 558897 470
518779 757710 509
465920 681438 509
819703 858162 525
172108 597680 470
807370 961661 525
531510 989368 525
168854 737572 509
316730 915623 525
584292 32978 470
588458 940928 525
474466 853931 525
493395 288388 449
736166 502903 509
456980 369308 449
212828 583157 470
64291 527454 470
831342 739332 468
750146 964588 525
228394 544326 470
535808 868809 525
478684 773988 509
647942 801448 504
218617 322905 443
783925 852625 525
935637 233346 525
706765 502305 509
256080 698690 509
369363 869482 525
988203 927783 507
984302 816385 525
490014 760725 509
908522 341453 525
547072 578167 421
551296 466403 470
450941 259926 449
494853 211696 449
811763 960205 525
754229 928527 525
475308 298219 449
479268 556901 470
206386 833674 509
17401 367402 443
389530 191065 443
450943 336314 449
229125 245580 443
398315 102229 443
603793 106727 470
952828 847926 507
657542 148028 509
724297 872822 525
352874 260016 441
304795 943260 525
468985 796590 509
198266 764639 509
980600 491412 525
246006 886483 525
648374 854936 525
363433 135794 443
323082 372145 441
550883 655944 509
695969 882700 525
46563 125370 354
308216 290034 371
153939 45870 375
113871 300702 443
437061 653130 509
407111 334699 441
278333 853503 525
643227 22948 509
144461 244128 443
508751 810329 509
873486 123021 525
977410 352126 525
693176 147977 509
816429 95406 509
214487 261655 443
61039 832567 509
50721 83384 351
508021 402608 449
957548 682343 525
847748 223374 525
490739 872216 525
326457 297973 384
990119 363850 525
633711 882998 525
687482 174472 509
322992 956627 525
642890 942236 525
472888 190688 449
263988 825568 509
846574 355173 525
393775 475515 449
735115 280422 509
341422 928223 525
735810 128062 509
900843 417323 525
777272 154543 509
39381 64352 340
279256 449224 449
447710 88293 449
374230 225086 443
382417 69832 443
168312 506575 449
986313 630065 525
417146 420813 343
310483 672271 509
688892 164471 509
975103 982387 427
866343 78294 525
50367 394897 443
592475 535907 452
720715 175769 509
13831 565397 470
363960 894154 525
137874 192198 383
733769 701692 504
956362 415733 525
93141 389168 443
692563 144545 509
257897 737976 509
550658 164254 470
204614 80408 383
405642 797590 509
645613 584795 509
207697 332604 443
424631 770094 509
334304 108337 443
501209 636830 509
361926 36669 443
636206 434708 509
969480 904189 507
287088 415099 449
770696 593055 509
535571 364430 470
722037 892041 525
799606 246936 509
699306 61252 509
985661 738973 525
384560 809351 509
43697 837604 509
404487 722088 509
374231 859726 525
192390 301218 443
684415 480374 509
777617 833819 468
519722 955362 525
290075 623569 470
473406 519598 470
55105 26064 340
786696 901709 525
848913 336016 525
90058 133578 354
933370 737471 525
503162 478474 426
44516 505354 449
262202 100310 443
833770 159164 509
449029 456728 387
597743 214076 470
363732 290210 441
328945 405133 441
960344 54605 525
82616 909077 525
149098 476877 449
18053 718524 509
479763 244170 449
672459 632030 442
864380 2341 525
411018 623111 470
472062 541107 470
156345 249253 443
947239 149953 525
650401 178409 509
645632 423599 509
504472 505386 320
65402 187800 383
159483 809215 509
326295 370628 441
28388 723624 509
441824 37204 449
594838 880521 525
75072 66564 325
683125 495679 509
837825 415962 525
723233 325867 509
777247 467045 509
637743 120492 509
821543 319960 509
79397 660368 509
207945 228375 386
679813 696712 442
480934 989281 525
810288 960801 525
872200 12981 525
370811 687954 509
178066 169814 347
930105 256811 525
750345 954989 525
893615 605655 525
445498 358297 449
647952 422549 509
937506 228678 525
404673 503255 449
947663 386372 525
211349 460460 449
281570 786764 509
321576 517169 470
190867 839754 525
724742 476305 509
826441 899388 525
659914 477745 509
840023 205205 525
542027 981524 525
402795 52720 443
37411 184043 383
433023 68959 449
234404 789201 509
235651 525356 470
388079 146061 443
199487 861940 525
415895 298770 449
778927 880353 525
214133 375866 443
97400 917467 525
937639 55979 525
191971 118785 383
616792 142655 470
143370 504290 449
950138 78916 525
284392 311517 389
791991 640775 504
744319 853382 525
166541 302646 443
370468 351925 410
