358263 733475
250134 366143
158958 784343
739307 741986
127402 957109
813403 145341
119690 144608
336509 200296
44161 939703
123783 680003
438493 576355
174126 690936
311811 956089
288767 117245
8709 898150
456559 847666
513714 973788
942613 562973
150889 157454
955809 119490
745105 164086
772114 645096
454990 297896
610606 410007
345236 556843
323626 741605
620702 15567
723606 811083
959301 465689
366434 712803
677358 390978
882981 944359
161022 630125
16889 63130
517195 870819
83117 720410
486830 951051
779743 629449
57492 212691
765167 35013
746361 32931
290031 406894
937130 607083
132352 151954
35001 993997
905710 302006
808362 634293
180531 252243
632548 921256
907041 219396
940626 631410
991307 167877
371423 739747
185605 473717
149564 809733
635663 655162
591919 237722
484837 340110
189091 813404
395481 358032
803028 603417
945056 99844
465087 972947
747807 36734
609989 834171
898637 443838
631450 602142
80895 194804
444442 570940
447471 202147
858986 333663
11906 923972
618511 208108
256244 247741
602316 680078
739302 432321
743951 560691
308452 705434
402363 436343
44176 140806
911173 651678
689032 198759
397986 649944
195221 657958
836996 513030
711225 803134
98479 559955
858095 507426
379982 420819
797671 859192
821499 331515
155478 112623
781085 219345
304761 242306
767757 845484
961507 703555
39386 671047
617603 13588
105440 378482
441097 854831
282777 48256
741179 279059
881518 708173
629348 164725
395594 365920
252190 820586
956663 939544
962686 849963
994828 116234
852811 972309
409863 23539
918056 772107
466007 525998
81360 857167
767752 271388
515883 196570
52016 920789
442824 369972
647818 220800
874342 844859
696122 28905
385454 451787
939378 816417
976637 412971
369275 936650
457782 879698
624914 27137
326144 703322
297823 872674
773149 653222
596269 524931
825523 472547
223560 61672
793514 1398
512110 467824
381134 278439
779872 453034
242443 196849
961727 715303
602541 64989
673268 738498
744617 304923
466871 769709
463101 15829
376297 941295
324665 271947
947848 825969
773093 660731
308113 618808
852927 405452
22615 740612
534815 902302
470018 457639
668224 727742
524291 960764
295420 948442
830473 529531
85850 771361
946364 123712
906898 713993
246860 378
322460 46978
320616 114427
470634 265650
974807 559099
416805 987463
654110 486543
183943 575190
922122 38997
195519 183091
740153 153777
273226 555313
489291 59416
720349 114844
34639 244891
953637 913947
530506 406242
132656 814873
992854 848174
99904 691089
239347 312691
846812 576741
289912 803866
771609 389638
887594 867989
49773 206301
394499 4599
730561 364959
390717 105576
826916 582567
668231 645363
842868 768413
699942 806213
814946 793036
295973 896670
451033 93082
877726 380939
197299 781126
198192 557573
14799 946077
244075 894869
235071 476956
834789 111558
194096 22396
553690 552794
228535 797654
524153 328859
842209 664754
21844 698655
621515 342547
704693 305033
406567 715585
763359 943037
811384 284415
482560 463088
208656 688719
44762 309769
110544 798632
619558 419403
554655 736601
713528 77401
114932 496526
773830 252797
