128917 463114
46890 298355
45759 896396
407178 859177
363591 712195
318751 77534
159941 822948
205280 815059
795785 447122
14150 843879
180824 875905
627041 504898
970335 35618
106942 254047
29906 396572
196199 647987
254968 26988
650360 27037
69221 817096
495656 876047
771106 153003
867946 414745
150092 696854
56674 255363
805104 549610
390513 4663
499004 170265
253955 345037
27796 17591
47300 112874
911553 419621
873247 895823
661246 893343
410509 657291
37889 557005
242481 996330
634780 358676
62193 132369
967786 788903
981348 534337
723791 363444
979267 163034
69606 870526
378718 962839
478840 576870
665646 170371
320638 886131
676628 951203
619771 206090
443918 409670
530716 258492
588792 747057
131611 312412
600946 583471
716406 295943
920324 517565
734898 734905
261869 355119
489319 820853
628665 557052
662288 379108
186757 459444
113575 166381
462451 500647
897018 88602
14379 328450
543491 927376
818315 738566
168688 330271
807552 283542
197531 674522
909031 788544
672898 357951
891477 561937
35171 374995
409512 484355
203339 300900
484508 944169
871247 909194
909179 987377
842959 730978
77449 373437
477896 757116
376097 795835
425488 165067
594543 379260
694792 193225
131074 308465
771449 144628
513110 587355
160069 551225
801715 860713
133166 717190
686920 243482
856450 399512
783144 146536
147412 88659
957171 372526
976179 129901
623698 559594
952659 305632
397074 168469
686317 878775
862384 726099
939604 84183
870968 94554
470799 201502
694963 534028
946679 496085
224567 90909
989255 770126
497229 206034
479704 813873
226453 847908
741276 80201
475830 404491
951619 982490
541724 802782
667135 426140
913083 717903
590096 276413
494911 280291
867825 613976
13712 257924
251799 767074
866208 374412
470960 910287
196919 163913
158393 777509
358615 302625
683605 966020
959156 901727
769077 128082
590410 332706
829286 510658
863864 172932
366741 901472
944647 724740
124406 404949
152837 835257
652265 679587
740318 606407
600513 944617
922681 251914
70331 544687
732402 721322
827018 158711
21007 839611
234676 749844
974210 432649
588069 997236
674416 455967
65313 429249
324677 358987
807713 880578
855499 721662
829322 88977
430215 265439
76021 259898
200307 814654
852982 207774
600350 665203
558252 94674
932228 160399
523447 437104
280657 915830
832051 96831
316080 797776
942990 523351
609416 304389
721877 185044
633676 881563
819982 340870
500663 280058
658471 532040
166764 174444
693165 981427
767976 54335
788047 266278
671667 382695
823087 663900
532350 248384
555521 119931
298094 435126
954949 500645
662236 55068
22506 529863
287852 139637
371088 356961
799565 92248
537249 720415
882025 503488
891370 197169
354054 128197
93518 949613
566377 398460
896152 195542
249258 28733
873043 188471
579033 253809
583427 234999
208517 728886
206508 45345
589919 704214
483459 911070
62254 439624
488985 33590
846020 355788
866937 157951
406486 87159
83809 398337
801854 120190
704361 908490
669501 910134
39775 119872
638245 79745
558344 859080
139097 32461
56416 106171
964771 538313
373822 135254
589253 964082
198236 242068
55861 487069
671662 157779
155065 395203
741551 12247
877505 882348
964194 221335
196339 504622
96709 782975
925538 344355
306714 62451
853578 116297
78115 272302
243532 542802
455834 769077
